<?xml version="1.0" encoding="UTF-8"?>
<!DOCTYPE svg PUBLIC "-//W3C//DTD SVG 1.1//EN" "http://www.w3.org/Graphics/SVG/1.1/DTD/svg11.dtd">
<!-- Creator: CorelDRAW X8 -->
<svg xmlns="http://www.w3.org/2000/svg" xml:space="preserve" width="8.26772in" height="11.6929in" version="1.1" style="shape-rendering:geometricPrecision; text-rendering:geometricPrecision; image-rendering:optimizeQuality; fill-rule:evenodd; clip-rule:evenodd"
viewBox="0 0 8268 11693"
 xmlns:xlink="http://www.w3.org/1999/xlink">
 <defs>
  <style type="text/css">
   <![CDATA[
    .fil0 {fill:#01C22E}
   ]]>
  </style>
 </defs>
 <g id="Layer_x0020_1">
  <metadata id="CorelCorpID_0Corel-Layer"/>
  <g id="e_x0020_learn.png">
   <g>
    <g>
     <path class="fil0" d="M6920 2503l-5572 0c-307,0 -557,250 -557,557l0 4235c0,307 250,557 557,557l2086 0 -167 669 -136 0c-307,0 -557,250 -557,557 0,62 50,112 111,112l2898 0c61,0 111,-50 111,-112 0,-307 -250,-557 -557,-557l-136 0 -167 -669 2086 0c307,0 557,-250 557,-557l0 -4235c0,-307 -250,-557 -557,-557zm-2006 6241l223 0c145,0 269,93 315,223l-2636 0c46,-130 170,-223 315,-223l223 0 1560 0zm-1417 -223l167 -669 940 0 167 669 -1274 0zm3757 -1226c0,185 -150,335 -334,335l-2229 0 -1114 0 -2229 0c-185,0 -335,-150 -335,-335l0 -223 6241 0 0 223zm0 -446l-6241 0 0 -3789c0,-184 150,-334 335,-334l5572 0c184,0 334,150 334,334l0 3789z"/>
    </g>
   </g>
   <g>
    <g>
     <path class="fil0" d="M6395 3622l-2229 -668c-21,-7 -43,-7 -64,0l-2229 668c-47,14 -79,58 -79,107 0,49 32,93 79,107l32 9 0 1821 -161 81c-38,19 -62,57 -62,99l0 669c0,62 50,112 112,112l445 0c62,0 112,-50 112,-112l0 -669c0,-42 -24,-80 -62,-99l-161 -81 0 -1754 446 134 0 1020c0,49 32,93 78,107l1449 446c11,3 22,5 33,5 11,0 22,-2 33,-5l1448 -446c47,-14 79,-58 79,-107l0 -1020 701 -210c47,-14 79,-58 79,-107 0,-49 -32,-93 -79,-107zm-4267 2782l-223 0 0 -489 111 -55 112 55 0 489zm3343 -1420l-1337 412 -1337 -412 0 -871 1305 391c10,4 21,5 32,5 11,0 21,-1 32,-5l1305 -391 0 871zm-1337 -703l-1841 -552 1841 -552 1841 552 -1841 552z"/>
    </g>
   </g>
   <g>
    <g>
     <rect class="fil0" x="6809" y="6404" width="223" height="223"/>
    </g>
   </g>
   <g>
    <g>
     <rect class="fil0" x="6363" y="6404" width="223" height="223"/>
    </g>
   </g>
   <g>
    <g>
     <rect class="fil0" x="5917" y="6404" width="223" height="223"/>
    </g>
   </g>
   <g>
   </g>
   <g>
   </g>
   <g>
   </g>
   <g>
   </g>
   <g>
   </g>
   <g>
   </g>
   <g>
   </g>
   <g>
   </g>
   <g>
   </g>
   <g>
   </g>
   <g>
   </g>
   <g>
   </g>
   <g>
   </g>
   <g>
   </g>
   <g>
   </g>
  </g>
 </g>
</svg>
