<?xml version="1.0" encoding="UTF-8"?>
<!DOCTYPE svg PUBLIC "-//W3C//DTD SVG 1.1//EN" "http://www.w3.org/Graphics/SVG/1.1/DTD/svg11.dtd">
<!-- Creator: CorelDRAW X8 -->
<svg xmlns="http://www.w3.org/2000/svg" xml:space="preserve" width="8.26772in" height="11.6929in" version="1.1" style="shape-rendering:geometricPrecision; text-rendering:geometricPrecision; image-rendering:optimizeQuality; fill-rule:evenodd; clip-rule:evenodd"
viewBox="0 0 8268 11693"
 xmlns:xlink="http://www.w3.org/1999/xlink">
 <defs>
  <style type="text/css">
   <![CDATA[
    .fil0 {fill:#01C22E}
    .fil1 {fill:#01C22E;fill-rule:nonzero}
   ]]>
  </style>
 </defs>
 <g id="Layer_x0020_1">
  <metadata id="CorelCorpID_0Corel-Layer"/>
  <g id="_1688290025648">
   <g>
    <circle class="fil0" cx="6336" cy="5990" r="383"/>
    <circle class="fil0" cx="1892" cy="4833" r="383"/>
    <path class="fil0" d="M4134 2910c181,563 60,475 651,474 -479,347 -432,204 -249,766 -478,-348 -327,-348 -805,0 184,-562 230,-419 -249,-766 591,1 470,89 652,-474z"/>
    <path class="fil0" d="M5141 8562l-2031 0 0 -508 2031 0c6,0 8,2 8,9l0 491c0,6 -2,8 -8,8zm-4514 -1857l0 -615c0,-38 1,-65 2,-75 12,-99 52,-184 102,-246 31,-38 59,-67 100,-95l38 -25c122,-74 226,-66 368,-66l1382 0c58,0 106,8 151,23 67,22 61,24 117,54l0 -568c0,-120 -11,-231 34,-344 12,-30 31,-66 49,-92 88,-129 233,-216 400,-216l1509 0c70,0 109,9 162,26 90,30 169,90 222,156 28,36 53,75 71,119 50,123 36,207 36,339l0 1697 48 -21c17,-7 33,-13 51,-18 38,-9 77,-13 125,-13l1368 0c91,0 183,-2 273,0 74,0 148,26 210,63 119,72 196,210 196,353l0 1642 -7014 0 0 -2078zm6785 1129l-1772 0 0 220 1772 0c6,0 8,2 8,9l0 491c0,6 -2,8 -8,8l-2031 0 0 -1426c0,-101 94,-188 185,-188l1664 0c79,0 153,58 178,129 9,26 12,55 12,89l0 659c0,7 -2,9 -8,9zm-2271 0l-2031 0 0 -2914c0,-56 24,-112 54,-152 6,-9 10,-11 16,-18 23,-29 68,-57 103,-71 34,-13 75,-18 122,-18l1452 0c178,0 292,111 292,290l0 2874c0,7 -2,9 -8,9zm-4294 -9l0 -1729c0,-42 6,-87 18,-118 25,-62 67,-113 128,-143 29,-14 64,-29 106,-29l1537 0c36,0 76,13 101,26 85,42 150,132 150,231l0 2499 -2031 0c-7,0 -9,-2 -9,-8l0 -491c0,-7 2,-9 9,-9l1771 0 0 -220 -1771 0c-7,0 -9,-2 -9,-9z"/>
   </g>
   <path class="fil1" d="M4425 5790l0 1268 -350 0 0 -830c-56,43 -111,78 -164,104 -54,26 -120,52 -200,76l0 -282c118,-39 210,-84 275,-138 65,-54 116,-120 153,-198l286 0z"/>
  </g>
 </g>
</svg>
