<?xml version="1.0" encoding="UTF-8"?>
<!DOCTYPE svg PUBLIC "-//W3C//DTD SVG 1.1//EN" "http://www.w3.org/Graphics/SVG/1.1/DTD/svg11.dtd">
<!-- Creator: CorelDRAW X8 -->
<svg xmlns="http://www.w3.org/2000/svg" xml:space="preserve" width="8.26772in" height="11.6929in" version="1.1" style="shape-rendering:geometricPrecision; text-rendering:geometricPrecision; image-rendering:optimizeQuality; fill-rule:evenodd; clip-rule:evenodd"
viewBox="0 0 8268 11693"
 xmlns:xlink="http://www.w3.org/1999/xlink">
 <defs>
  <style type="text/css">
   <![CDATA[
    .fil0 {fill:#01C22E}
   ]]>
  </style>
 </defs>
 <g id="Layer_x0020_1">
  <metadata id="CorelCorpID_0Corel-Layer"/>
  <g id="_2468330169088">
   <path class="fil0" d="M2754 6583c0,48 39,87 87,87l347 0c48,0 87,-39 87,-87l0 -521c0,-47 -39,-86 -87,-86l-347 0c-48,0 -87,39 -87,86l0 521 0 0zm174 -434l173 0 0 347 -173 0 0 -347z"/>
   <path class="fil0" d="M2841 5629l347 0c48,0 87,-39 87,-87l0 -520c0,-48 -39,-87 -87,-87l-347 0c-48,0 -87,39 -87,87l0 520c0,48 39,87 87,87zm87 -521l173 0 0 347 -173 0 0 -347z"/>
   <path class="fil0" d="M2192 5009l1256 -754 1257 754c14,9 29,13 44,13 30,0 58,-15 75,-42 24,-42 11,-95 -30,-119l-1259 -756 0 -558 434 0 0 174 -261 0c-47,0 -86,38 -86,86 0,48 39,87 86,87l347 0c48,0 87,-39 87,-87l0 -347c0,-48 -39,-86 -87,-86l-607 0c-48,0 -87,38 -87,86l0 645 -1259 756c-41,24 -54,77 -29,119 24,41 78,54 119,29z"/>
   <path class="fil0" d="M1800 6670c48,0 87,-39 87,-87l0 -521c0,-47 -39,-86 -87,-86l-347 0c-48,0 -86,39 -86,86l0 174c0,48 38,87 86,87 48,0 87,-39 87,-87l0 -87 173 0 0 434c0,48 39,87 87,87z"/>
   <path class="fil0" d="M2407 7797l0 -2515c0,-48 -39,-87 -86,-87 -48,0 -87,39 -87,87l0 2515c0,48 39,87 87,87 47,0 86,-39 86,-87z"/>
   <path class="fil0" d="M1974 8231l2949 0c48,0 86,-39 86,-87 0,-48 -38,-87 -86,-87l-781 0 0 -867 87 0c48,0 87,-39 87,-87 0,-48 -39,-86 -87,-86l-1561 0c-48,0 -87,38 -87,86 0,48 39,87 87,87l86 0 0 867 -780 0c-48,0 -87,39 -87,87 0,48 39,87 87,87zm1561 -521c48,0 87,-38 87,-86 0,-48 -39,-87 -87,-87l0 -347 434 0 0 867 -434 0 0 -347zm-607 -520l433 0 0 347c-47,0 -86,39 -86,87 0,48 39,86 86,86l0 347 -433 0 0 -867z"/>
   <path class="fil0" d="M5443 7103l-347 0c-48,0 -87,39 -87,87l0 520c0,48 39,87 87,87l347 0c48,0 87,-39 87,-87l0 -520c0,-48 -39,-87 -87,-87zm-87 521l-173 0 0 -347 173 0 0 347z"/>
   <path class="fil0" d="M5443 6062l-347 0c-48,0 -87,39 -87,87l0 521c0,47 39,86 87,86l347 0c48,0 87,-39 87,-86l0 -521c0,-48 -39,-87 -87,-87zm-87 521l-173 0 0 -347 173 0 0 347z"/>
   <path class="fil0" d="M5270 8404l-3643 0c-48,0 -87,39 -87,87 0,48 39,87 87,87l3643 0c48,0 86,-39 86,-87 0,-48 -38,-87 -86,-87z"/>
   <path class="fil0" d="M5964 5282c-48,0 -87,39 -87,87l0 86 -954 0c-48,0 -87,39 -87,87 0,48 39,87 87,87l954 0 0 2862c0,48 39,87 87,87 47,0 86,-39 86,-87l0 -3122c0,-48 -39,-87 -86,-87z"/>
   <path class="fil0" d="M3622 6583c0,48 39,87 86,87l347 0c48,0 87,-39 87,-87l0 -521c0,-47 -39,-86 -87,-86l-347 0c-47,0 -86,39 -86,86l0 521zm173 -434l174 0 0 347 -174 0 0 -347z"/>
   <path class="fil0" d="M1713 7624c0,-12 -4,-1128 -433,-1128 -429,0 -434,1116 -434,1128 0,209 149,384 347,425l0 442c0,48 39,87 87,87 48,0 87,-39 87,-87l0 -442c197,-41 346,-216 346,-425zm-433 260c-144,0 -260,-117 -260,-260 0,-432 116,-954 260,-954 144,0 260,522 260,954 0,143 -117,260 -260,260z"/>
   <path class="fil0" d="M4663 7797l0 -2602c0,-48 -39,-87 -87,-87 -48,0 -87,39 -87,87l0 2602c0,48 39,87 87,87 48,0 87,-39 87,-87z"/>
   <path class="fil0" d="M3708 5629l347 0c48,0 87,-39 87,-87l0 -520c0,-48 -39,-87 -87,-87l-347 0c-47,0 -86,39 -86,87l0 520c0,48 39,87 86,87zm87 -521l174 0 0 347 -174 0 0 -347z"/>
   <path class="fil0" d="M933 6409c48,0 87,-38 87,-86l0 -694 954 0c48,0 86,-39 86,-87 0,-48 -38,-87 -86,-87l-954 0 0 -86c0,-48 -39,-87 -87,-87 -48,0 -87,39 -87,87l0 954c0,48 39,86 87,86z"/>
   <path class="fil0" d="M7369 3519l-625 0 0 -207c0,-29 -23,-53 -52,-53l-256 0 0 -92c0,-29 -24,-52 -53,-52l-427 0c-29,0 -52,23 -52,52l0 92 -218 0c-29,0 -52,24 -52,53l0 207 -589 0c-29,0 -52,24 -52,52l0 217c0,29 23,52 52,52 29,0 52,-23 52,-52l0 -164 537 0 0 164c0,29 23,52 52,52l1006 0c29,0 52,-23 52,-52l0 -164 573 0 0 2840 -1048 0 0 105 1100 0c29,0 53,-24 53,-52l0 -2946c0,-28 -24,-52 -53,-52zm-2272 1726l0 -1222c0,-29 -23,-52 -52,-52 -29,0 -52,23 -52,52l0 1222 104 0zm911 -2026l323 0 0 40 -323 0 0 -40zm632 517l-902 0 0 -372 218 0 427 0 257 0 0 372z"/>
   <path class="fil0" d="M7015 4248l-1124 0c-29,0 -53,23 -53,52 0,29 24,52 53,52l1124 0c29,0 52,-23 52,-52 0,-29 -23,-52 -52,-52z"/>
   <path class="fil0" d="M7015 4820l-1124 0c-29,0 -53,23 -53,52 0,29 24,52 53,52l1124 0c29,0 52,-23 52,-52 0,-29 -23,-52 -52,-52z"/>
   <path class="fil0" d="M5674 4110l-288 0c-29,0 -52,23 -52,52l0 7 0 281 0 8c0,28 23,52 52,52l288 0c29,0 52,-24 52,-52l0 -8 0 -281 0 -7c0,-29 -23,-52 -52,-52zm-52 288l-184 0 0 -176 184 0 0 176z"/>
   <path class="fil0" d="M5674 4695l-288 0c-29,0 -52,23 -52,52l0 288c0,29 23,52 52,52l288 0c29,0 52,-23 52,-52l0 -288c0,-29 -23,-52 -52,-52zm-52 288l-184 0 0 -184 184 0 0 184z"/>
  </g>
 </g>
</svg>
