<?xml version="1.0" encoding="UTF-8"?>
<!DOCTYPE svg PUBLIC "-//W3C//DTD SVG 1.1//EN" "http://www.w3.org/Graphics/SVG/1.1/DTD/svg11.dtd">
<!-- Creator: CorelDRAW X8 -->
<svg xmlns="http://www.w3.org/2000/svg" xml:space="preserve" width="8.26772in" height="11.6929in" version="1.1" style="shape-rendering:geometricPrecision; text-rendering:geometricPrecision; image-rendering:optimizeQuality; fill-rule:evenodd; clip-rule:evenodd"
viewBox="0 0 8268 11693"
 xmlns:xlink="http://www.w3.org/1999/xlink">
 <defs>
  <style type="text/css">
   <![CDATA[
    .fil0 {fill:#01C22E}
   ]]>
  </style>
 </defs>
 <g id="Layer_x0020_1">
  <metadata id="CorelCorpID_0Corel-Layer"/>
  <g id="wallet.png">
   <path class="fil0" d="M5689 3958c62,0 112,49 112,111l222 0c0,-145 -93,-267 -222,-313l0 -243 -223 0 0 243c-129,46 -222,168 -222,313 0,183 150,333 333,333 62,0 112,50 112,111 0,61 -50,111 -112,111 -61,0 -111,-50 -111,-111l-222 0c0,145 93,267 222,313l0 243 223 0 0 -243c129,-46 222,-168 222,-313 0,-184 -150,-333 -334,-333 -61,0 -111,-50 -111,-111 0,-62 50,-111 111,-111zm0 0z"/>
   <path class="fil0" d="M5689 3069c-673,0 -1222,548 -1222,1222 0,674 549,1222 1222,1222 674,0 1223,-548 1223,-1222 0,-674 -549,-1222 -1223,-1222zm0 2222c-551,0 -1000,-449 -1000,-1000 0,-551 449,-1000 1000,-1000 552,0 1000,449 1000,1000 0,551 -448,1000 -1000,1000zm0 0z"/>
   <path class="fil0" d="M7273 3776c-27,-84 -60,-165 -99,-242l143 -287 -584 -584 -287 143c-77,-39 -158,-72 -241,-99l-102 -305 -827 0 -102 305c-83,27 -164,60 -241,99l-287 -143 -584 585 143 287c-39,76 -73,157 -100,241l-304 102 0 826 304 102c27,84 61,165 100,241l-143 287 178 179 -3217 0c-184,0 -334,150 -334,334l0 3111c0,183 150,333 334,333l4444 0c184,0 334,-150 334,-333l0 -2778 302 0 102 -305c83,-27 164,-60 241,-100l287 144 584 -585 -143 -287c39,-77 72,-157 100,-241l304 -102 0 -826 -305 -102zm-6250 1959l3440 0 183 184 287 -144c77,40 158,73 241,100l28 83 -4290 0 0 -112c0,-61 50,-111 111,-111zm4444 3334l-4444 0c-61,0 -111,-50 -111,-112l0 -111 4666 0 0 111c0,62 -50,112 -111,112l0 0zm111 -1334l-889 0c-245,0 -444,-199 -444,-444 0,-245 199,-445 444,-445l889 0 0 889zm0 -1111l-889 0c-367,0 -666,299 -666,667 0,367 299,666 666,666l889 0 0 667 -4666 0 0 -2444 4666 0 0 444zm1778 -2080l-263 88 -16 56c-31,108 -73,210 -125,304l-29 51 124 247 -358 359 -248 -124 -51 28c-94,53 -196,95 -303,125l-56 17 -88 263 -507 0 -88 -263 -56 -17c-107,-30 -209,-72 -303,-125l-52 -28 -247 124 -358 -359 123 -247 -28 -51c-53,-94 -95,-197 -125,-304l-16 -56 -263 -88 0 -506 263 -88 16 -57c30,-107 72,-209 125,-303l28 -51 -123 -248 358 -358 247 124 52 -29c94,-52 196,-94 303,-125l56 -16 88 -263 507 0 88 263 56 16c107,31 209,73 303,125l51 29 248 -124 358 358 -124 248 29 51c52,94 94,196 125,303l16 57 263 88 0 506zm0 0z"/>
   <path class="fil0" d="M1134 6402l222 0 0 222 -222 0 0 -222zm0 0z"/>
   <path class="fil0" d="M1134 6846l222 0 0 223 -222 0 0 -223zm0 0z"/>
   <path class="fil0" d="M1134 7291l222 0 0 222 -222 0 0 -222zm0 0z"/>
   <path class="fil0" d="M1134 7735l222 0 0 222 -222 0 0 -222zm0 0z"/>
   <path class="fil0" d="M1134 8180l222 0 0 222 -222 0 0 -222zm0 0z"/>
   <path class="fil0" d="M1689 3513l223 0 0 333 -223 0 0 -333zm0 0z"/>
   <path class="fil0" d="M1251 3787l157 -157 235 236 -157 157 -235 -236zm0 0z"/>
   <path class="fil0" d="M1134 4069l333 0 0 222 -333 0 0 -222zm0 0z"/>
   <path class="fil0" d="M1251 4573l235 -236 157 157 -235 236 -157 -157zm0 0z"/>
   <path class="fil0" d="M1689 4513l223 0 0 333 -223 0 0 -333zm0 0z"/>
   <path class="fil0" d="M1958 4494l157 -157 236 236 -158 157 -235 -236zm0 0z"/>
   <path class="fil0" d="M2134 4069l333 0 0 222 -333 0 0 -222zm0 0z"/>
   <path class="fil0" d="M1958 3865l235 -235 157 157 -235 236 -157 -158zm0 0z"/>
   <path class="fil0" d="M3134 3180l222 0 0 222 -222 0 0 -222zm0 0z"/>
   <path class="fil0" d="M3134 3624l222 0 0 222 -222 0 0 -222zm0 0z"/>
   <path class="fil0" d="M3356 3402l222 0 0 222 -222 0 0 -222zm0 0z"/>
   <path class="fil0" d="M2912 3402l222 0 0 222 -222 0 0 -222zm0 0z"/>
   <path class="fil0" d="M6578 7402l222 0 0 333 -222 0 0 -333zm0 0z"/>
   <path class="fil0" d="M6139 7676l157 -158 236 236 -157 157 -236 -235zm0 0z"/>
   <path class="fil0" d="M6023 7957l333 0 0 223 -333 0 0 -223zm0 0z"/>
   <path class="fil0" d="M6139 8461l236 -235 157 157 -236 236 -157 -158zm0 0z"/>
   <path class="fil0" d="M6578 8402l222 0 0 333 -222 0 0 -333zm0 0z"/>
   <path class="fil0" d="M6846 8383l158 -158 235 236 -157 157 -236 -235zm0 0z"/>
   <path class="fil0" d="M7023 7957l333 0 0 223 -333 0 0 -223zm0 0z"/>
   <path class="fil0" d="M6846 7754l236 -235 157 157 -235 235 -158 -157zm0 0z"/>
   <path class="fil0" d="M6689 6291l223 0 0 222 -223 0 0 -222zm0 0z"/>
   <path class="fil0" d="M6689 6735l223 0 0 222 -223 0 0 -222zm0 0z"/>
   <path class="fil0" d="M6912 6513l222 0 0 222 -222 0 0 -222zm0 0z"/>
   <path class="fil0" d="M6467 6513l222 0 0 222 -222 0 0 -222zm0 0z"/>
   <path class="fil0" d="M4356 7291c0,184 150,333 333,333 184,0 334,-149 334,-333 0,-184 -150,-334 -334,-334 -183,0 -333,150 -333,334zm445 0c0,61 -50,111 -112,111 -61,0 -111,-50 -111,-111 0,-61 50,-111 111,-111 62,0 112,50 112,111zm0 0z"/>
  </g>
 </g>
</svg>
